[
  {
    "Id" : 1,
    "Name" : "Pizza"
  },
  {
    "Id" : 2,
    "Name" : "Burgers"
  },
  {
    "Id" : 3,
    "Name" : "Hot Dogs"
  },
  {
    "Id" : 4,
    "Name" : "Coffee"
  },
  {
    "Id" : 5,
    "Name" : "Breakfast"
  },
  {
    "Id" : 6,
    "Name" : "Seafood"
  },
  {
    "Id" : 7,
    "Name" : "Drinks"
  }
]